\relax 
\providecommand\zref@newlabel[2]{}
\providecommand\hyper@newdestlabel[2]{}
\providecommand\AtEndDvi@Check{}
\AtEndDvi@Check
\providecommand\HyperFirstAtBeginDocument{\AtBeginDocument}
\HyperFirstAtBeginDocument{\ifx\hyper@anchor\@undefined
\global\let\oldcontentsline\contentsline
\gdef\contentsline#1#2#3#4{\oldcontentsline{#1}{#2}{#3}}
\global\let\oldnewlabel\newlabel
\gdef\newlabel#1#2{\newlabelxx{#1}#2}
\gdef\newlabelxx#1#2#3#4#5#6{\oldnewlabel{#1}{{#2}{#3}}}
\AtEndDocument{\ifx\hyper@anchor\@undefined
\let\contentsline\oldcontentsline
\let\newlabel\oldnewlabel
\fi}
\fi}
\global\let\hyper@last\relax 
\gdef\HyperFirstAtBeginDocument#1{#1}
\providecommand\HyField@AuxAddToFields[1]{}
\providecommand\HyField@AuxAddToCoFields[2]{}
\providecommand{\mciteSetMaxWidth}[3]{\relax}
\providecommand{\mciteSetMaxCount}[3]{\relax}
\citation{Huo:2003cj}
\citation{Huo:2003cj}
\citation{Aliev:1998va}
\citation{Aliev:1998va}
\citation{Gemintern:2004bw}
\citation{Gemintern:2004bw}
\citation{Dutta:2014sxo}
\citation{Dutta:2014sxo}
\citation{delAmoSanchez:2010bx}
\citation{delAmoSanchez:2010bx}
\citation{Bosch:2002bv}
\citation{Bosch:2002bv}
\citation{CidVidal:2018blh}
\citation{CidVidal:2018blh}
\citation{CidVidal:2018blh}
\citation{Barrand:2001ny}
\citation{Barrand:2001ny}
\citation{Benson:2314368}
\citation{Benson:2314368}
\citation{Benson:2314368}
\@writefile{toc}{\contentsline {section}{\numberline {1}Introduction}{1}{section.1}}
\newlabel{sec:introduction}{{1}{1}{Introduction}{section.1}{}}
\citation{Benson:2314368}
\citation{Sjostrand:2006za}
\citation{Sjostrand:2007gs}
\citation{Sjostrand:2006za}
\citation{LHCb-PROC-2010-056}
\citation{LHCb-PROC-2010-056}
\citation{Lange:2001uf}
\citation{Lange:2001uf}
\citation{Golonka:2005pn}
\citation{Golonka:2005pn}
\citation{Allison:2006ve}
\citation{Agostinelli:2002hh}
\citation{Allison:2006ve}
\citation{LHCb-PROC-2011-006}
\citation{LHCb-PROC-2011-006}
\citation{Alwall:2014hca}
\citation{Alwall:2014hca}
\citation{Mariotti:2017vtv}
\citation{Mariotti:2017vtv}
\citation{LHCb-DP-2012-004}
\citation{LHCb-DP-2012-004}
\@writefile{toc}{\contentsline {section}{\numberline {2}HLT1 additions}{2}{section.2}}
\newlabel{sec:hlt1}{{2}{2}{HLT1 additions}{section.2}{}}
\@writefile{toc}{\contentsline {section}{\numberline {3}Training and testing samples}{2}{section.3}}
\newlabel{sec:samples}{{3}{2}{Training and testing samples}{section.3}{}}
\@writefile{lot}{\contentsline {table}{\numberline {1}{\ignorespaces Loose offline selection for \unhbox \voidb@x \hbox {\ensuremath  {{\ensuremath  {{\ensuremath  {\ensuremath  {B}\xspace  }}\xspace  ^0_{\ensuremath  {\ensuremath  {s}\xspace  }}\xspace  }}\xspace  \tmspace  -\thinmuskip {.1667em}\ensuremath  {\rightarrow }\xspace  \gamma \gamma }}\xspace   used as a baseline for the efficiency determination. The fraction of events in each category after this loose selection with respect to the total events that pass it is shown in the last row.\relax }}{2}{table.caption.1}}
\providecommand*\caption@xref[2]{\@setref\relax\@undefined{#1}}
\newlabel{tab:preselection}{{1}{2}{Loose offline selection for \decay {\Bs }{\gamma \gamma } used as a baseline for the efficiency determination. The fraction of events in each category after this loose selection with respect to the total events that pass it is shown in the last row.\relax }{table.caption.1}{}}
\citation{Scikit}
\citation{Scikit}
\@writefile{lot}{\contentsline {table}{\numberline {2}{\ignorespaces \relax \fontsize  {10.95}{13.6}\selectfont  \abovedisplayskip 11\p@ plus3\p@ minus6\p@ \abovedisplayshortskip \z@ plus3\p@ \belowdisplayshortskip 6.5\p@ plus3.5\p@ minus3\p@ \def \leftmargin \leftmargini \parsep 5\p@ plus2.5\p@ minus\p@ \topsep 10\p@ plus4\p@ minus6\p@ \itemsep 5\p@ plus2.5\p@ minus\p@ {\leftmargin \leftmargini \topsep 9\p@ plus3\p@ minus5\p@ \parsep 4.5\p@ plus2\p@ minus\p@ \itemsep \parsep }\belowdisplayskip \abovedisplayskip Selection applied in the \texttt  {Hlt1B2GammaGamma} and \texttt  {Hlt1B2GammaGammaHighMass} HLT1\xspace  trigger line. Energies and masses given here are computed with $2\times 2$ cell clusters. \relax }}{3}{table.caption.2}}
\newlabel{tab:hlt1:cuts}{{2}{3}{\small Selection applied in the \texttt {Hlt1B2GammaGamma} and \texttt {Hlt1B2GammaGammaHighMass} \hltone trigger line. Energies and masses given here are computed with $2\times 2$ cell clusters. \relax }{table.caption.2}{}}
\@writefile{lot}{\contentsline {table}{\numberline {3}{\ignorespaces \relax \fontsize  {10.95}{13.6}\selectfont  \abovedisplayskip 11\p@ plus3\p@ minus6\p@ \abovedisplayshortskip \z@ plus3\p@ \belowdisplayshortskip 6.5\p@ plus3.5\p@ minus3\p@ \def \leftmargin \leftmargini \parsep 5\p@ plus2.5\p@ minus\p@ \topsep 10\p@ plus4\p@ minus6\p@ \itemsep 5\p@ plus2.5\p@ minus\p@ {\leftmargin \leftmargini \topsep 9\p@ plus3\p@ minus5\p@ \parsep 4.5\p@ plus2\p@ minus\p@ \itemsep \parsep }\belowdisplayskip \abovedisplayskip Percentage efficiency for the {\ensuremath  {{\ensuremath  {\ensuremath  {B}\xspace  }}\xspace  ^0_{\ensuremath  {\ensuremath  {s}\xspace  }}\xspace  }}\xspace  and ALP samples. \relax }}{3}{table.caption.3}}
\newlabel{tab:hlt1:effs}{{3}{3}{\small Percentage efficiency for the \Bs and ALP samples. \relax }{table.caption.3}{}}
\@writefile{lot}{\contentsline {table}{\numberline {4}{\ignorespaces Sample sizes for the signal decays and background after recontruction and trigger requirements.\relax }}{3}{table.caption.4}}
\newlabel{tab:samples}{{4}{3}{Sample sizes for the signal decays and background after recontruction and trigger requirements.\relax }{table.caption.4}{}}
\@writefile{toc}{\contentsline {section}{\numberline {4}Classifier training}{3}{section.4}}
\newlabel{sec:classifier}{{4}{3}{Classifier training}{section.4}{}}
\@writefile{lof}{\contentsline {figure}{\numberline {1}{\ignorespaces \relax \fontsize  {10.95}{13.6}\selectfont  \abovedisplayskip 11\p@ plus3\p@ minus6\p@ \abovedisplayshortskip \z@ plus3\p@ \belowdisplayshortskip 6.5\p@ plus3.5\p@ minus3\p@ \def \leftmargin \leftmargini \parsep 5\p@ plus2.5\p@ minus\p@ \topsep 10\p@ plus4\p@ minus6\p@ \itemsep 5\p@ plus2.5\p@ minus\p@ {\leftmargin \leftmargini \topsep 9\p@ plus3\p@ minus5\p@ \parsep 4.5\p@ plus2\p@ minus\p@ \itemsep \parsep }\belowdisplayskip \abovedisplayskip Signal and background distributions of information used to train the \emph  {1CV LL} classifier. Variables are explained in the text. \relax }}{5}{figure.caption.5}}
\newlabel{fig:llinputs}{{1}{5}{\small Signal and background distributions of information used to train the \emph {1CV LL} classifier. Variables are explained in the text. \relax }{figure.caption.5}{}}
\@writefile{lof}{\contentsline {figure}{\numberline {2}{\ignorespaces \relax \fontsize  {10.95}{13.6}\selectfont  \abovedisplayskip 11\p@ plus3\p@ minus6\p@ \abovedisplayshortskip \z@ plus3\p@ \belowdisplayshortskip 6.5\p@ plus3.5\p@ minus3\p@ \def \leftmargin \leftmargini \parsep 5\p@ plus2.5\p@ minus\p@ \topsep 10\p@ plus4\p@ minus6\p@ \itemsep 5\p@ plus2.5\p@ minus\p@ {\leftmargin \leftmargini \topsep 9\p@ plus3\p@ minus5\p@ \parsep 4.5\p@ plus2\p@ minus\p@ \itemsep \parsep }\belowdisplayskip \abovedisplayskip Signal and background distributions of information used to train the \emph  {1CV DD} classifier. Variables are explained in the text. \relax }}{6}{figure.caption.6}}
\newlabel{fig:ddinputs}{{2}{6}{\small Signal and background distributions of information used to train the \emph {1CV DD} classifier. Variables are explained in the text. \relax }{figure.caption.6}{}}
\@writefile{lof}{\contentsline {figure}{\numberline {3}{\ignorespaces \relax \fontsize  {10.95}{13.6}\selectfont  \abovedisplayskip 11\p@ plus3\p@ minus6\p@ \abovedisplayshortskip \z@ plus3\p@ \belowdisplayshortskip 6.5\p@ plus3.5\p@ minus3\p@ \def \leftmargin \leftmargini \parsep 5\p@ plus2.5\p@ minus\p@ \topsep 10\p@ plus4\p@ minus6\p@ \itemsep 5\p@ plus2.5\p@ minus\p@ {\leftmargin \leftmargini \topsep 9\p@ plus3\p@ minus5\p@ \parsep 4.5\p@ plus2\p@ minus\p@ \itemsep \parsep }\belowdisplayskip \abovedisplayskip Signal and background distributions of information used to train the \emph  {0CV} classifier. Variables are explained in the text. \relax }}{7}{figure.caption.7}}
\newlabel{fig:none}{{3}{7}{\small Signal and background distributions of information used to train the \emph {0CV} classifier. Variables are explained in the text. \relax }{figure.caption.7}{}}
\@writefile{lof}{\contentsline {figure}{\numberline {4}{\ignorespaces \relax \fontsize  {10.95}{13.6}\selectfont  \abovedisplayskip 11\p@ plus3\p@ minus6\p@ \abovedisplayshortskip \z@ plus3\p@ \belowdisplayshortskip 6.5\p@ plus3.5\p@ minus3\p@ \def \leftmargin \leftmargini \parsep 5\p@ plus2.5\p@ minus\p@ \topsep 10\p@ plus4\p@ minus6\p@ \itemsep 5\p@ plus2.5\p@ minus\p@ {\leftmargin \leftmargini \topsep 9\p@ plus3\p@ minus5\p@ \parsep 4.5\p@ plus2\p@ minus\p@ \itemsep \parsep }\belowdisplayskip \abovedisplayskip Training and test signal and background output distributions of the 1CV LL NN (top-left), 1CV DD NN (top-right), 0CV NN (bottom). \relax }}{8}{figure.caption.8}}
\newlabel{fig:event}{{4}{8}{\small Training and test signal and background output distributions of the 1CV LL NN (top-left), 1CV DD NN (top-right), 0CV NN (bottom). \relax }{figure.caption.8}{}}
\@writefile{toc}{\contentsline {section}{\numberline {5}Performance}{8}{section.5}}
\newlabel{sec:perf}{{5}{8}{Performance}{section.5}{}}
\@writefile{toc}{\contentsline {section}{\numberline {6}Implementation in the real-time software stack}{8}{section.6}}
\newlabel{sec:implementation}{{6}{8}{Implementation in the real-time software stack}{section.6}{}}
\@writefile{lof}{\contentsline {figure}{\numberline {5}{\ignorespaces \relax \fontsize  {10.95}{13.6}\selectfont  \abovedisplayskip 11\p@ plus3\p@ minus6\p@ \abovedisplayshortskip \z@ plus3\p@ \belowdisplayshortskip 6.5\p@ plus3.5\p@ minus3\p@ \def \leftmargin \leftmargini \parsep 5\p@ plus2.5\p@ minus\p@ \topsep 10\p@ plus4\p@ minus6\p@ \itemsep 5\p@ plus2.5\p@ minus\p@ {\leftmargin \leftmargini \topsep 9\p@ plus3\p@ minus5\p@ \parsep 4.5\p@ plus2\p@ minus\p@ \itemsep \parsep }\belowdisplayskip \abovedisplayskip ROC curves for the test data using the 1CV LL NN (top-left), 1CV DD NN (top-right), 0CV NN (bottom). \relax }}{9}{figure.caption.9}}
\newlabel{fig:roc}{{5}{9}{\small ROC curves for the test data using the 1CV LL NN (top-left), 1CV DD NN (top-right), 0CV NN (bottom). \relax }{figure.caption.9}{}}
\@writefile{lot}{\contentsline {table}{\numberline {5}{\ignorespaces \relax \fontsize  {10.95}{13.6}\selectfont  \abovedisplayskip 11\p@ plus3\p@ minus6\p@ \abovedisplayshortskip \z@ plus3\p@ \belowdisplayshortskip 6.5\p@ plus3.5\p@ minus3\p@ \def \leftmargin \leftmargini \parsep 5\p@ plus2.5\p@ minus\p@ \topsep 10\p@ plus4\p@ minus6\p@ \itemsep 5\p@ plus2.5\p@ minus\p@ {\leftmargin \leftmargini \topsep 9\p@ plus3\p@ minus5\p@ \parsep 4.5\p@ plus2\p@ minus\p@ \itemsep \parsep }\belowdisplayskip \abovedisplayskip Percentage efficiency for the {\ensuremath  {{\ensuremath  {\ensuremath  {B}\xspace  }}\xspace  ^0_{\ensuremath  {\ensuremath  {s}\xspace  }}\xspace  }}\xspace  and ALP samples relative to the reconstructed and loosely selected samples.\relax }}{9}{table.caption.10}}
\newlabel{tab:mlpeff}{{5}{9}{\small Percentage efficiency for the \Bs and ALP samples relative to the reconstructed and loosely selected samples.\relax }{table.caption.10}{}}
\@writefile{toc}{\contentsline {section}{\numberline {7}Summary}{9}{section.7}}
\newlabel{sec:summary}{{7}{9}{Summary}{section.7}{}}
\bibstyle{LHCb}
\bibdata{main,standard,LHCb-PAPER,LHCb-CONF,LHCb-DP,LHCb-TDR}
\bibcite{Huo:2003cj}{1}
\bibcite{Aliev:1998va}{2}
\bibcite{Gemintern:2004bw}{3}
\bibcite{Dutta:2014sxo}{4}
\bibcite{delAmoSanchez:2010bx}{5}
\bibcite{Bosch:2002bv}{6}
\bibcite{CidVidal:2018blh}{7}
\bibcite{Barrand:2001ny}{8}
\bibcite{Benson:2314368}{9}
\bibcite{Sjostrand:2006za}{10}
\bibcite{LHCb-PROC-2010-056}{11}
\bibcite{Lange:2001uf}{12}
\bibcite{Golonka:2005pn}{13}
\bibcite{Allison:2006ve}{14}
\bibcite{LHCb-PROC-2011-006}{15}
\bibcite{Alwall:2014hca}{16}
\bibcite{Mariotti:2017vtv}{17}
\bibcite{LHCb-DP-2012-004}{18}
\bibcite{Scikit}{19}
\mciteSetMaxCount{main}{bibitem}{19}
\mciteSetMaxCount{main}{subitem}{1}
\mciteSetMaxWidth{main}{bibitem}{770046}
\mciteSetMaxWidth{main}{subitem}{0}
\zref@newlabel{LastPage}{\default{7}\page{11}\abspage{13}}
